[
  {
    "inputs": [
      { "internalType": "uint256", "name": "depositWei", "type": "uint256" },
      { "internalType": "uint256", "name": "priceWei", "type": "uint256" },
      { "internalType": "uint256", "name": "totalQuantity", "type": "uint256" }
    ],
    "stateMutability": "nonpayable",
    "type": "constructor"
  },
  {
    "anonymous": false,
    "inputs": [
      {
        "indexed": false,
        "internalType": "uint256",
        "name": "ticketId",
        "type": "uint256"
      },
      {
        "indexed": false,
        "internalType": "address",
        "name": "holder",
        "type": "address"
      },
      {
        "indexed": false,
        "internalType": "bytes32",
        "name": "metadataHash",
        "type": "bytes32"
      }
    ],
    "name": "TicketIssued",
    "type": "event"
  },
  {
    "inputs": [
      {
        "internalType": "address",
        "name": "validatorContractAddress",
        "type": "address"
      }
    ],
    "name": "activateValidation",
    "outputs": [],
    "stateMutability": "nonpayable",
    "type": "function"
  },
  {
    "inputs": [
      { "internalType": "address", "name": "holder", "type": "address" },
      { "internalType": "uint256[]", "name": "ticketIds", "type": "uint256[]" }
    ],
    "name": "availableRefund",
    "outputs": [{ "internalType": "uint256", "name": "", "type": "uint256" }],
    "stateMutability": "view",
    "type": "function"
  },
  {
    "inputs": [],
    "name": "claimBalance",
    "outputs": [],
    "stateMutability": "nonpayable",
    "type": "function"
  },
  {
    "inputs": [],
    "name": "claimIncome",
    "outputs": [],
    "stateMutability": "nonpayable",
    "type": "function"
  },
  {
    "inputs": [
      { "internalType": "uint256[]", "name": "ticketIds", "type": "uint256[]" }
    ],
    "name": "claimRefund",
    "outputs": [],
    "stateMutability": "nonpayable",
    "type": "function"
  },
  {
    "inputs": [],
    "name": "deactivateValidation",
    "outputs": [],
    "stateMutability": "nonpayable",
    "type": "function"
  },
  {
    "inputs": [],
    "name": "deposit",
    "outputs": [{ "internalType": "uint256", "name": "", "type": "uint256" }],
    "stateMutability": "view",
    "type": "function"
  },
  {
    "inputs": [
      { "internalType": "uint256", "name": "ticketId", "type": "uint256" }
    ],
    "name": "drawIndex",
    "outputs": [{ "internalType": "uint256", "name": "", "type": "uint256" }],
    "stateMutability": "view",
    "type": "function"
  },
  {
    "inputs": [],
    "name": "endBlockNumber",
    "outputs": [{ "internalType": "uint256", "name": "", "type": "uint256" }],
    "stateMutability": "view",
    "type": "function"
  },
  {
    "inputs": [{ "internalType": "uint256", "name": "", "type": "uint256" }],
    "name": "holderByTicketId",
    "outputs": [{ "internalType": "address", "name": "", "type": "address" }],
    "stateMutability": "view",
    "type": "function"
  },
  {
    "inputs": [
      { "internalType": "uint256", "name": "ticketId", "type": "uint256" }
    ],
    "name": "isWinner",
    "outputs": [{ "internalType": "bool", "name": "", "type": "bool" }],
    "stateMutability": "view",
    "type": "function"
  },
  {
    "inputs": [
      { "internalType": "bytes", "name": "metadata", "type": "bytes" }
    ],
    "name": "issueTicket",
    "outputs": [{ "internalType": "uint256", "name": "", "type": "uint256" }],
    "stateMutability": "payable",
    "type": "function"
  },
  {
    "inputs": [
      { "internalType": "address", "name": "holder", "type": "address" },
      { "internalType": "bytes", "name": "metadata", "type": "bytes" }
    ],
    "name": "issueTicket",
    "outputs": [{ "internalType": "uint256", "name": "", "type": "uint256" }],
    "stateMutability": "payable",
    "type": "function"
  },
  {
    "inputs": [
      {
        "internalType": "uint256",
        "name": "durationInBlocks",
        "type": "uint256"
      }
    ],
    "name": "openMinting",
    "outputs": [],
    "stateMutability": "nonpayable",
    "type": "function"
  },
  {
    "inputs": [],
    "name": "owner",
    "outputs": [
      { "internalType": "address payable", "name": "", "type": "address" }
    ],
    "stateMutability": "view",
    "type": "function"
  },
  {
    "inputs": [
      { "internalType": "bytes32", "name": "_seedHash", "type": "bytes32" }
    ],
    "name": "prepareShuffleWinners",
    "outputs": [],
    "stateMutability": "nonpayable",
    "type": "function"
  },
  {
    "inputs": [],
    "name": "price",
    "outputs": [{ "internalType": "uint256", "name": "", "type": "uint256" }],
    "stateMutability": "view",
    "type": "function"
  },
  {
    "inputs": [],
    "name": "quantity",
    "outputs": [{ "internalType": "uint256", "name": "", "type": "uint256" }],
    "stateMutability": "view",
    "type": "function"
  },
  {
    "inputs": [
      { "internalType": "uint256", "name": "seed", "type": "uint256" }
    ],
    "name": "shuffleWinners",
    "outputs": [],
    "stateMutability": "nonpayable",
    "type": "function"
  },
  {
    "inputs": [],
    "name": "startBlockNumber",
    "outputs": [{ "internalType": "uint256", "name": "", "type": "uint256" }],
    "stateMutability": "view",
    "type": "function"
  },
  {
    "inputs": [],
    "name": "ticketsIssued",
    "outputs": [{ "internalType": "uint256", "name": "", "type": "uint256" }],
    "stateMutability": "view",
    "type": "function"
  },
  {
    "inputs": [
      {
        "internalType": "address payable",
        "name": "newOwner",
        "type": "address"
      }
    ],
    "name": "transferOwnership",
    "outputs": [],
    "stateMutability": "nonpayable",
    "type": "function"
  },
  {
    "inputs": [
      { "internalType": "address", "name": "tokenContract", "type": "address" }
    ],
    "name": "withdrawForeignERC20",
    "outputs": [],
    "stateMutability": "nonpayable",
    "type": "function"
  },
  {
    "inputs": [
      { "internalType": "address", "name": "tokenContract", "type": "address" },
      { "internalType": "uint256", "name": "tokenId", "type": "uint256" }
    ],
    "name": "withdrawForeignERC721",
    "outputs": [],
    "stateMutability": "nonpayable",
    "type": "function"
  }
]
